(+0.000e+00,-1.000e+00)
(+1.000e+00,+0.000e+00)
(+1.000e+00,+0.000e+00)
(+1.000e+00,+0.000e+00)
(+1.000e+00,+0.000e+00)
(-1.000e+00,+0.000e+00)
(+0.000e+00,+1.000e+00)
(+0.000e+00,+1.000e+00)
(+1.000e+00,+0.000e+00)
(+1.000e+00,+0.000e+00)
(+1.000e+00,+0.000e+00)
(+1.000e+00,+0.000e+00)
(+1.000e+00,+0.000e+00)
(+0.000e+00,-1.000e+00)
(+0.000e+00,+1.000e+00)
(+0.000e+00,-1.000e+00)
(+1.000e+00,+0.000e+00)
(-1.000e+00,+0.000e+00)
(+1.000e+00,+0.000e+00)
(+1.000e+00,+0.000e+00)
(+0.000e+00,+1.000e+00)
(-1.000e+00,+0.000e+00)
(+0.000e+00,-1.000e+00)
(-1.000e+00,+0.000e+00)
(-1.000e+00,+0.000e+00)
(+1.000e+00,+0.000e+00)
(-1.000e+00,+0.000e+00)
(+0.000e+00,-1.000e+00)
(+1.000e+00,+0.000e+00)
(-1.000e+00,+0.000e+00)
(+0.000e+00,+1.000e+00)
(+1.000e+00,+0.000e+00)
(-1.000e+00,+0.000e+00)
(+1.000e+00,+0.000e+00)
(+0.000e+00,+1.000e+00)
(+0.000e+00,+1.000e+00)
(+0.000e+00,-1.000e+00)
(+0.000e+00,-1.000e+00)
(-1.000e+00,+0.000e+00)
(+1.000e+00,+0.000e+00)
(-1.000e+00,+0.000e+00)
(+0.000e+00,+1.000e+00)
(+0.000e+00,-1.000e+00)
(+1.000e+00,+0.000e+00)
(+0.000e+00,-1.000e+00)
(+0.000e+00,-1.000e+00)
(-1.000e+00,+0.000e+00)
(-1.000e+00,+0.000e+00)
(+0.000e+00,+1.000e+00)
(-1.000e+00,+0.000e+00)
(+1.000e+00,+0.000e+00)
(+1.000e+00,+0.000e+00)
(+0.000e+00,+1.000e+00)
(-1.000e+00,+0.000e+00)
(-1.000e+00,+0.000e+00)
(+0.000e+00,-1.000e+00)
(-1.000e+00,+0.000e+00)
(+0.000e+00,+1.000e+00)
(+0.000e+00,-1.000e+00)
(-1.000e+00,+0.000e+00)
(+0.000e+00,+1.000e+00)
(-1.000e+00,+0.000e+00)
(+0.000e+00,-1.000e+00)
(+0.000e+00,-1.000e+00)
(-1.000e+00,+0.000e+00)
(-1.000e+00,+0.000e+00)
(+0.000e+00,+1.000e+00)
(+0.000e+00,+1.000e+00)
(-1.000e+00,+0.000e+00)
(+0.000e+00,-1.000e+00)
(+0.000e+00,-1.000e+00)
(+0.000e+00,+1.000e+00)
(-1.000e+00,+0.000e+00)
(+0.000e+00,+1.000e+00)
(+0.000e+00,-1.000e+00)
(+0.000e+00,+1.000e+00)
(+0.000e+00,+1.000e+00)
(-1.000e+00,+0.000e+00)
(+0.000e+00,+1.000e+00)
(+1.000e+00,+0.000e+00)
(+0.000e+00,+1.000e+00)
(-1.000e+00,+0.000e+00)
(+0.000e+00,-1.000e+00)
(+0.000e+00,-1.000e+00)
(-1.000e+00,+0.000e+00)
(+1.000e+00,+0.000e+00)
(+0.000e+00,+1.000e+00)
(+0.000e+00,+1.000e+00)
(+1.000e+00,+0.000e+00)
(-1.000e+00,+0.000e+00)
(-1.000e+00,+0.000e+00)
(+0.000e+00,-1.000e+00)
(+0.000e+00,+1.000e+00)
(+0.000e+00,+1.000e+00)
(+0.000e+00,-1.000e+00)
(+0.000e+00,+1.000e+00)
(+0.000e+00,+1.000e+00)
(+1.000e+00,+0.000e+00)
(+0.000e+00,-1.000e+00)
(-1.000e+00,+0.000e+00)
(+0.000e+00,+1.000e+00)
(+1.000e+00,+0.000e+00)
(+0.000e+00,+1.000e+00)
(-1.000e+00,+0.000e+00)
(-1.000e+00,+0.000e+00)
(+0.000e+00,-1.000e+00)
(+1.000e+00,+0.000e+00)
(+1.000e+00,+0.000e+00)
(+1.000e+00,+0.000e+00)
(-1.000e+00,+0.000e+00)
(-1.000e+00,+0.000e+00)
(+0.000e+00,-1.000e+00)
(+0.000e+00,-1.000e+00)
(+0.000e+00,+1.000e+00)
(+0.000e+00,-1.000e+00)
(+0.000e+00,-1.000e+00)
(+0.000e+00,-1.000e+00)
(+0.000e+00,+1.000e+00)
(-1.000e+00,+0.000e+00)
(+0.000e+00,-1.000e+00)
(+0.000e+00,+1.000e+00)
(+1.000e+00,+0.000e+00)
(-1.000e+00,+0.000e+00)
(-1.000e+00,+0.000e+00)
(-1.000e+00,+0.000e+00)
(+0.000e+00,+1.000e+00)
(-1.000e+00,+0.000e+00)
(+1.000e+00,+0.000e+00)
(+1.000e+00,+0.000e+00)
(+1.000e+00,+0.000e+00)
(+1.000e+00,+0.000e+00)
(+1.000e+00,+0.000e+00)
(+0.000e+00,+1.000e+00)
(+0.000e+00,-1.000e+00)
(+1.000e+00,+0.000e+00)
(+0.000e+00,-1.000e+00)
(-1.000e+00,+0.000e+00)
(+1.000e+00,+0.000e+00)
(+1.000e+00,+0.000e+00)
(+0.000e+00,+1.000e+00)
(+0.000e+00,-1.000e+00)
(+1.000e+00,+0.000e+00)
(+1.000e+00,+0.000e+00)
(+1.000e+00,+0.000e+00)
(+1.000e+00,+0.000e+00)
(-1.000e+00,+0.000e+00)
(+0.000e+00,+1.000e+00)
(+0.000e+00,+1.000e+00)
(-1.000e+00,+0.000e+00)
(+0.000e+00,+1.000e+00)
(+1.000e+00,+0.000e+00)
(+1.000e+00,+0.000e+00)
(+0.000e+00,+1.000e+00)
(+0.000e+00,+1.000e+00)
(+0.000e+00,+1.000e+00)
(+0.000e+00,-1.000e+00)
(+0.000e+00,+1.000e+00)
(+0.000e+00,+1.000e+00)
(-1.000e+00,+0.000e+00)
(+0.000e+00,+1.000e+00)
(+0.000e+00,+1.000e+00)
(+0.000e+00,+1.000e+00)
(+0.000e+00,+1.000e+00)
(-1.000e+00,+0.000e+00)
(+0.000e+00,-1.000e+00)
(-1.000e+00,+0.000e+00)