[2460217.27922454 2460217.27992189 2460217.28061924 2460217.28131659 ...
 2460217.28201394 2460217.28271129 2460217.28340864 2460217.28410599 ...
 2460217.28480334 2460217.28550069 2460217.28619804 2460217.28689539 ...
 2460217.28759274 2460217.28829009 2460217.28898744 2460217.28968479 ...
 2460217.29038214 2460217.29107949 2460217.29177684 2460217.29247419 ...
 2460217.29317154 2460217.29386889 2460217.29456624 2460217.29526359 ...
 2460217.29596094 2460217.29665829 2460217.29735564 2460217.29805299 ...
 2460217.29875034 2460217.29944769 2460217.30014504 2460217.30084239 ...
 2460217.30153974 2460217.30223709 2460217.30293444 2460217.30363179 ...
 2460217.30432914 2460217.30502649 2460217.30572384 2460217.30642119 ...
 2460217.30711854 2460217.30781589 2460217.30851324 2460217.30921059 ...
 2460217.30990794 2460217.31060529 2460217.31130264 2460217.31199999 ...
 2460217.31269734 2460217.31339469 2460217.31409204 2460217.31478939 ...
 2460217.31548674 2460217.31618409 2460217.31688144 2460217.31757879 ...
 2460217.31827614 2460217.31897349 2460217.31967084 2460217.32036819 ...
 2460217.32106554 2460217.32176289 2460217.32246024 2460217.32315759 ...
 2460217.32385494 2460217.32455229 2460217.32524964 2460217.32594699 ...
 2460217.32664434 2460217.32734169 2460217.32803904 2460217.32873639 ...
 2460217.32943374 2460217.33013109 2460217.33082844 2460217.33152579 ...
 2460217.33222314 2460217.33292049 2460217.33361784 2460217.33431519 ...
 2460217.33501254 2460217.33570989 2460217.33640724 2460217.33710459 ...
 2460217.33780194 2460217.33849929 2460217.33919664 2460217.33989399 ...
 2460217.34059134 2460217.34128869 2460217.34198604 2460217.34268339 ...
 2460217.34338074 2460217.34407809 2460217.34477544 2460217.34547279 ...
 2460217.34617014 2460217.34686749 2460217.34756484 2460217.34826219 ...
 2460217.34895954 2460217.34965689 2460217.35035424 2460217.35105159 ...
 2460217.35174894 2460217.35244629 2460217.35314364 2460217.35384099 ...
 2460217.35453834 2460217.35523569 2460217.35593304 2460217.35663039 ...
 2460217.35732774 2460217.35802509 2460217.35872245 2460217.3594198 ...
 2460217.36011715 2460217.3608145  2460217.36151185 2460217.3622092 ...
 2460217.36290655 2460217.3636039  2460217.36430125 2460217.3649986 ...
 2460217.36569595 2460217.3663933  2460217.36709065 2460217.367788 ...
 2460217.36848535 2460217.3691827  2460217.36988005 2460217.3705774 ...
 2460217.37127475 2460217.3719721  2460217.37266945 2460217.3733668 ...
 2460217.37406415 2460217.3747615  2460217.37545885 2460217.3761562 ...
 2460217.37685355 2460217.3775509  2460217.37824825 2460217.3789456 ...
 2460217.37964295 2460217.3803403  2460217.38103765 2460217.381735 ...
 2460217.38243235 2460217.3831297  2460217.38382705 2460217.3845244 ...
 2460217.38522175 2460217.3859191  2460217.38661645 2460217.3873138 ...
 2460217.38801115 2460217.3887085  2460217.38940585 2460217.3901032 ...
 2460217.39080055 2460217.3914979  2460217.39219525 2460217.3928926 ...
 2460217.39358995 2460217.3942873  2460217.39498465 2460217.395682 ...
 2460217.39637935 2460217.3970767  2460217.39777405 2460217.3984714 ...
 2460217.39916875 2460217.3998661  2460217.40056345 2460217.4012608 ...
 2460217.40195815 2460217.4026555  2460217.40335285 2460217.4040502 ...
 2460217.40474755 2460217.4054449  2460217.40614225 2460217.4068396 ...
 2460217.40753695 2460217.4082343  2460217.40893165 2460217.409629 ...
 2460217.41032635 2460217.4110237  2460217.41172105 2460217.4124184 ...
 2460217.41311575 2460217.4138131  2460217.41451045 2460217.4152078 ...
 2460217.41590515 2460217.4166025  2460217.41729985 2460217.4179972 ...
 2460217.41869455 2460217.4193919  2460217.42008925 2460217.4207866 ...
 2460217.42148395 2460217.4221813  2460217.42287865 2460217.423576 ...
 2460217.42427335 2460217.4249707  2460217.42566805 2460217.4263654 ...
 2460217.42706275 2460217.4277601  2460217.42845745 2460217.4291548 ...
 2460217.42985215 2460217.4305495  2460217.43124685 2460217.4319442 ...
 2460217.43264155 2460217.4333389  2460217.43403625 2460217.4347336 ...
 2460217.43543095 2460217.4361283  2460217.43682565 2460217.437523 ...
 2460217.43822035 2460217.4389177  2460217.43961505 2460217.4403124 ...
 2460217.44100975 2460217.4417071  2460217.44240445 2460217.4431018 ...
 2460217.44379915 2460217.4444965  2460217.44519385 2460217.4458912]
