{std::complex<float>(-108902.478818060,- 157825.739605503),
 std::complex<float>(266109.768322979,- 34922.4477278827),
 std::complex<float>(404079.641812471,- 106595.439783406),
 std::complex<float>(208071.714977245,+ 22508.1360014620),
 std::complex<float>(203272.483111050,- 6053.69785977958),
 std::complex<float>(-287526.153251256,+ 57720.4666820584),
 std::complex<float>(45114.1445197746,+ 243335.476972174),
 std::complex<float>(-26592.9718559236,+ 135989.450250738),
 std::complex<float>(328819.032987916,- 93056.3672737583),
 std::complex<float>(259170.988678908,- 102408.764973637),
 std::complex<float>(269884.021144375,- 20776.9806655475),
 std::complex<float>(286053.937307889,+ 2778.35731469052),
 std::complex<float>(320528.790272342,- 2063.54537408007),
 std::complex<float>(63240.5587558420,- 309966.932789796),
 std::complex<float>(-994.036752087384,+ 383675.069832574),
 std::complex<float>(11075.4134916224,- 212895.300292282),
 std::complex<float>(206829.393952823,+ 110274.851942327),
 std::complex<float>(-275163.539416601,- 59504.1262163754),
 std::complex<float>(262295.524626574,- 2203.31134988017),
 std::complex<float>(190466.454891899,+ 82250.1355495156),
 std::complex<float>(40413.2304715509,+ 350663.515124526),
 std::complex<float>(-317165.920146511,- 7301.16621898914),
 std::complex<float>(44029.8994122851,- 241355.290768243),
 std::complex<float>(-220560.291125496,- 86961.5962825437),
 std::complex<float>(-196793.134844881,- 112604.764654117),
 std::complex<float>(291488.092724560,+ 102971.558989819),
 std::complex<float>(-343107.546015406,- 42196.9682980403),
 std::complex<float>(-28962.9749751246,- 229071.545227635),
 std::complex<float>(330079.225983378,+ 71210.8898026632),
 std::complex<float>(-377181.295906986,+ 59376.8263554985),
 std::complex<float>(-62036.8696193881,+ 323139.697131348),
 std::complex<float>(251292.165142588,- 80755.6675492950),
 std::complex<float>(-288732.063417426,- 104055.000100671),
 std::complex<float>(326099.729049324,+ 55370.9677396821),
 std::complex<float>(29875.9352643515,+ 176983.375720507),
 std::complex<float>(-3579.57932397610,+ 358391.288510152),
 std::complex<float>(81334.1454246108,- 344088.627942450),
 std::complex<float>(-13415.2010733661,- 321383.143631505),
 std::complex<float>(-134709.930367382,+ 61475.9670416665),
 std::complex<float>(378835.728333298,+ 139660.631431089),
 std::complex<float>(-207645.159021024,+ 49453.3105005170),
 std::complex<float>(-44228.1430313732,+ 289502.033915683),
 std::complex<float>(5065.04743957610,- 365018.583434845),
 std::complex<float>(284515.600113817,+ 77618.4575077071),
 std::complex<float>(-51340.5815315732,- 383025.322398615),
 std::complex<float>(112664.030677017,- 382613.391868547),
 std::complex<float>(-348378.275107460,+ 2975.63742882217),
 std::complex<float>(-160988.333533067,+ 44584.7727286858),
 std::complex<float>(113833.883199328,+ 307582.617588099),
 std::complex<float>(-211478.527432523,+ 46465.8939883031),
 std::complex<float>(233159.976314562,+ 115039.603206244),
 std::complex<float>(197596.526646247,+ 59198.3244440122),
 std::complex<float>(101933.833506595,+ 286189.661431449),
 std::complex<float>(-131635.133973922,- 81700.5240548817),
 std::complex<float>(-370267.926181774,+ 7047.65265597205),
 std::complex<float>(-49968.3247510121,- 285039.718102266),
 std::complex<float>(-222175.216276413,- 8466.44511966994),
 std::complex<float>(18961.4655813860,+ 238829.772661961),
 std::complex<float>(19770.8524174234,- 334374.290020986),
 std::complex<float>(-320108.215201887,- 44234.9673148586),
 std::complex<float>(10818.6226104208,+ 347556.719477435),
 std::complex<float>(-257731.207360270,+ 60249.9978414226),
 std::complex<float>(20039.7358499336,- 199700.409749771),
 std::complex<float>(-10118.8360417921,- 231632.563012656),
 std::complex<float>(-198082.286721434,- 35885.4521417229),
 std::complex<float>(-277649.312362076,- 13410.3231475056),
 std::complex<float>(115237.161358592,+ 217982.676427630),
 std::complex<float>(2560.47927330650,+ 355988.380753566),
 std::complex<float>(-197441.571595210,- 45629.4736846581),
 std::complex<float>(-36914.6700835203,- 195847.933670298),
 std::complex<float>(-45210.8047867864,- 265181.469888291),
 std::complex<float>(-35561.8120108167,+ 405871.488778255),
 std::complex<float>(-259125.532853647,+ 52624.7041651404),
 std::complex<float>(-14164.5856473270,+ 302577.342016703),
 std::complex<float>(34385.4289729716,- 80214.4158270706),
 std::complex<float>(-73651.9138628257,+ 304274.906908449),
 std::complex<float>(-40132.2347974158,+ 220813.724245551),
 std::complex<float>(-238774.891284851,+ 162252.382135630),
 std::complex<float>(-79337.2118909443,+ 203316.951730713),
 std::complex<float>(289253.454596008,- 121310.474644714),
 std::complex<float>(-44716.3273722024,+ 296894.019596582),
 std::complex<float>(-176740.779144083,+ 106562.500431162),
 std::complex<float>(-119620.689186999,- 195199.346949665),
 std::complex<float>(39165.3855447882,- 226396.735013809),
 std::complex<float>(-293199.147151661,+ 20213.7229665595),
 std::complex<float>(303459.963359310,+ 26397.8910427597),
 std::complex<float>(56670.7532882006,+ 242218.186209047),
 std::complex<float>(-71904.4018540371,+ 309071.308756691),
 std::complex<float>(244262.575666387,- 22826.6754090602),
 std::complex<float>(-228206.085283437,- 53863.3764818129),
 std::complex<float>(-226532.169221484,+ 38225.9454960954),
 std::complex<float>(-13643.2355039486,- 269577.547971374),
 std::complex<float>(-21970.2794642021,+ 174416.623394382),
 std::complex<float>(-19259.1238002371,+ 301811.812299192),
 std::complex<float>(-4612.94715465231,- 226605.760184766),
 std::complex<float>(-23387.4968769036,+ 243870.984581143),
 std::complex<float>(5551.44025358268,+ 271256.526021145),
 std::complex<float>(234189.813772512,- 18264.4133206433),
 std::complex<float>(35619.3300779813,- 211357.624118494),
 std::complex<float>(-163242.812642695,- 107669.215338609),
 std::complex<float>(-78982.0255076810,+ 157795.990985183),
 std::complex<float>(299797.404460044,- 83861.2841184990),
 std::complex<float>(10811.8721029995,+ 190308.964293287),
 std::complex<float>(-269033.400886866,- 98566.4180914819),
 std::complex<float>(-278714.670212226,- 118362.510584198),
 std::complex<float>(56767.3666170820,- 195096.859861107),
 std::complex<float>(239044.560949000,+ 74194.2845343530),
 std::complex<float>(153470.019965694,+ 16715.4028546159),
 std::complex<float>(221602.889779722,+ 131838.460576799),
 std::complex<float>(-317730.679511656,- 77323.3605202107),
 std::complex<float>(-234618.853599297,- 34777.1026894251),
 std::complex<float>(-22233.9073583111,- 222225.730493860),
 std::complex<float>(2628.70335504000,- 260011.159949316),
 std::complex<float>(53916.5952284144,+ 262035.134920197),
 std::complex<float>(90741.7770128491,- 215188.392578721),
 std::complex<float>(174499.794626081,- 234751.938375262),
 std::complex<float>(69629.7976114374,- 213164.787687290),
 std::complex<float>(-40357.0367550719,+ 216915.129545336),
 std::complex<float>(-284408.016513179,- 70394.4600579931),
 std::complex<float>(-142481.892368576,- 313585.521070726),
 std::complex<float>(-27190.3152158215,+ 295843.578264369),
 std::complex<float>(256049.463282802,+ 9565.70651776391),
 std::complex<float>(-342588.738451704,+ 4077.99174654904),
 std::complex<float>(-251891.658801916,+ 7023.32690112418),
 std::complex<float>(-248666.288344721,- 2592.42102647570),
 std::complex<float>(-47363.0380750809,+ 138424.801512117),
 std::complex<float>(-290387.395056501,- 96029.6319523855),
 std::complex<float>(152204.443870297,- 26178.0454393518),
 std::complex<float>(233175.779259151,- 44452.3056739961),
 std::complex<float>(159817.772818007,- 87314.0778418152),
 std::complex<float>(372525.350610973,- 40849.7725397502),
 std::complex<float>(365883.261547789,- 17553.1713440437),
 std::complex<float>(54637.8407698597,+ 305322.462569510),
 std::complex<float>(77851.6104111185,- 235350.605574969),
 std::complex<float>(255591.830630356,- 162739.625411107),
 std::complex<float>(-132439.302709577,- 299038.247703440),
 std::complex<float>(-296950.309624665,+ 75436.3759503344),
 std::complex<float>(366911.620490062,- 78393.1229815728),
 std::complex<float>(415205.955536334,- 70065.9424686915),
 std::complex<float>(14989.9275262950,+ 368462.782958977),
 std::complex<float>(-23905.5644990217,- 226617.032860017),
 std::complex<float>(422790.719242365,- 63051.1253615838),
 std::complex<float>(239827.062512557,- 7100.71624088653),
 std::complex<float>(304980.144811774,- 18491.3231362798),
 std::complex<float>(259263.697856716,- 141223.232744947),
 std::complex<float>(-237859.876983377,+ 24130.1195172918),
 std::complex<float>(125621.588644407,+ 271347.255876413),
 std::complex<float>(78273.2659012372,+ 278636.543348333),
 std::complex<float>(-269646.478473857,+ 10660.0658950857),
 std::complex<float>(-79844.2422575638,+ 301270.338619370),
 std::complex<float>(221487.074965146,- 6976.22897405861),
 std::complex<float>(307988.093817801,- 150954.853085794),
 std::complex<float>(-80482.4915009491,+ 175423.781860931),
 std::complex<float>(41565.1181018243,+ 316796.318709496),
 std::complex<float>(95347.8500986481,+ 286149.292257688),
 std::complex<float>(64695.4462292068,- 287431.026681777),
 std::complex<float>(27216.6951477148,+ 375466.040593424),
 std::complex<float>(-91761.2944319104,+ 316253.462545178),
 std::complex<float>(-322804.701332433,+ 2556.60989924034),
 std::complex<float>(29112.0187725613,+ 312517.080893798),
 std::complex<float>(-21760.9697757483,+ 354023.431811172),
 std::complex<float>(25608.2878154964,+ 236328.102104671),
 std::complex<float>(4960.75542944143,+ 295403.517398547),
 std::complex<float>(-126603.390120974,- 115260.782682437),
 std::complex<float>(22608.7040287047,- 335483.578806295),
 std::complex<float>(-272899.900077920,+ 45189.0009541071)}